﻿{
  "profiles": {
    "SMETS2.Req.Ins.Fup.DefaultNotification.WorkerService": {
      "commandName": "Project",
      "environmentVariables": {
        "DOTNET_ENVIRONMENT": "Development"
      }
    }
  }
}
